Classification
…
Lets look at the diabetes data

Code

# required packages
library(mclust)
library(tidyverse)
library(mlr)

# the dataset
data(diabetes, package = 'mclust')
(as_tibble(diabetes) -> diabetes)

# A tibble: 145 × 4
   class  glucose insulin  sspg
   <fct>    <dbl>   <dbl> <dbl>
 1 Normal      80     356   124
 2 Normal      97     289   117
 3 Normal     105     319   143
 4 Normal      90     356   199
 5 Normal      90     323   240
 6 Normal      86     381   157
 7 Normal     100     350   221
 8 Normal      85     301   186
 9 Normal      97     379   142
10 Normal      97     296   131
# … with 135 more rows
…
